{
	"name": "sermon-interface/bible-verse",

	"title": "Bible Verse (ESV)",
	"description": "Displays verses from the ESV Bible",
	"keywords": ["bible", "scripture", "passage", "verse"],
	"category": "embed",
	"apiVersion": 2,
	"attributes": {
		"passage": {
			"type": "string",
			"source": "meta",
			"meta": "passage",
			"default": ""
		},
		"passageClone": {
			"type": "string"
		},
		"bibleText": {
			"type": "string",
			"default": "",
			"source": "html",
			"selector": ".sermon-bible-text"
		},
		"displayLinkToBookTaxonomy": {
			"type": "boolean",
			"default": true
		},
		"bookLink": {
			"type": "string",
			"source": "attribute",
			"attribute": "href",
			"selector": ".sermon-other-from-book a"
		}
	},
	"supports": {
		"html": false
	}
}